{
	"id": "b2f3d532-78c6-0161-2bb7-a1d522839350",
	"name": "CursoProyecto",
	"description": "",
	"order": [
		"63ea1228-bf1a-028b-689d-efa3e5d7cbea",
		"ef2779c5-61cd-b50d-b595-d3aa90fb2028",
		"ba09e33a-1813-eacd-0996-ca3bd987cc59",
		"adcf0009-c9c3-0a95-b5df-cc565794d347"
	],
	"folders": [],
	"folders_order": [],
	"timestamp": 1641499650182,
	"owner": "3625773",
	"public": false,
	"requests": [
		{
			"id": "63ea1228-bf1a-028b-689d-efa3e5d7cbea",
			"headers": "Content-Type: application/json\nAccept: application/json\n",
			"headerData": [
				{
					"key": "Content-Type",
					"value": "application/json",
					"description": "",
					"enabled": true
				},
				{
					"key": "Accept",
					"value": "application/json",
					"description": "",
					"enabled": true
				}
			],
			"url": "http://localhost:9090/curso-programacion/operacion/consulta",
			"queryParams": [],
			"preRequestScript": null,
			"pathVariables": {},
			"pathVariableData": [],
			"method": "POST",
			"data": [],
			"dataMode": "raw",
			"tests": null,
			"currentHelper": "normal",
			"helperAttributes": {},
			"time": 1641499660435,
			"name": "EjemploCurso",
			"description": "",
			"collectionId": "b2f3d532-78c6-0161-2bb7-a1d522839350",
			"responses": [],
			"rawModeData": "{\n \"id\": \"1\"\n}"
		},
		{
			"id": "adcf0009-c9c3-0a95-b5df-cc565794d347",
			"headers": "Content-Type: application/json\nAccept: application/json\n",
			"headerData": [
				{
					"key": "Content-Type",
					"value": "application/json",
					"description": "",
					"enabled": true
				},
				{
					"key": "Accept",
					"value": "application/json",
					"description": "",
					"enabled": true
				}
			],
			"url": "http://localhost:9091/curso-programacion/operacion/borrar",
			"queryParams": [],
			"preRequestScript": null,
			"pathVariables": {},
			"pathVariableData": [],
			"method": "POST",
			"data": [],
			"dataMode": "raw",
			"tests": null,
			"currentHelper": "normal",
			"helperAttributes": {},
			"time": 1641933859440,
			"name": "EjemploCursoBorrar",
			"description": "",
			"collectionId": "b2f3d532-78c6-0161-2bb7-a1d522839350",
			"responses": [],
			"rawModeData": "{\n   \"id\": \"1\"\n}\n"
		},
		{
			"id": "ba09e33a-1813-eacd-0996-ca3bd987cc59",
			"headers": "Content-Type: application/json\nAccept: application/json\n",
			"headerData": [
				{
					"key": "Content-Type",
					"value": "application/json",
					"description": "",
					"enabled": true
				},
				{
					"key": "Accept",
					"value": "application/json",
					"description": "",
					"enabled": true
				}
			],
			"url": "http://localhost:9091/curso-programacion/operacion/actualizar",
			"queryParams": [],
			"preRequestScript": null,
			"pathVariables": {},
			"pathVariableData": [],
			"method": "POST",
			"data": [],
			"dataMode": "raw",
			"tests": null,
			"currentHelper": "normal",
			"helperAttributes": {},
			"time": 1641933830130,
			"name": "EjemploCursoActualizar",
			"description": "",
			"collectionId": "b2f3d532-78c6-0161-2bb7-a1d522839350",
			"responses": [],
			"rawModeData": "{\n \"id\" : \"3\",\n \"nombre\": \"Sucursal Perisur\",\n \"direccion\" : \"Universidad 150, C.P 59500\",\n \"fechaApertura\": \"2022-01-02T21:34:33.000Z\"\n}"
		},
		{
			"id": "ef2779c5-61cd-b50d-b595-d3aa90fb2028",
			"headers": "Content-Type: application/json\nAccept: application/json\n",
			"headerData": [
				{
					"key": "Content-Type",
					"value": "application/json",
					"description": "",
					"enabled": true
				},
				{
					"key": "Accept",
					"value": "application/json",
					"description": "",
					"enabled": true
				}
			],
			"url": "http://localhost:9091/curso-programacion/operacion/insertar",
			"queryParams": [],
			"preRequestScript": null,
			"pathVariables": {},
			"pathVariableData": [],
			"method": "POST",
			"data": [],
			"dataMode": "raw",
			"tests": null,
			"currentHelper": "normal",
			"helperAttributes": {},
			"time": 1641933875049,
			"name": "EjemploCursoInsertar",
			"description": "",
			"collectionId": "b2f3d532-78c6-0161-2bb7-a1d522839350",
			"responses": [],
			"rawModeData": "{\n \"nombre\": \"Sucursal Valle\",\n \"direccion\" : \"Arboledas Satelite 50, C.P 59500\",\n \"fechaApertura\": \"2015-06-02T21:34:33.616Z\"\n}"
		}
	]
}